\relax 
\providecommand\hyper@newdestlabel[2]{}
\providecommand\HyperFirstAtBeginDocument{\AtBeginDocument}
\HyperFirstAtBeginDocument{\ifx\hyper@anchor\@undefined
\global\let\oldcontentsline\contentsline
\gdef\contentsline#1#2#3#4{\oldcontentsline{#1}{#2}{#3}}
\global\let\oldnewlabel\newlabel
\gdef\newlabel#1#2{\newlabelxx{#1}#2}
\gdef\newlabelxx#1#2#3#4#5#6{\oldnewlabel{#1}{{#2}{#3}}}
\AtEndDocument{\ifx\hyper@anchor\@undefined
\let\contentsline\oldcontentsline
\let\newlabel\oldnewlabel
\fi}
\fi}
\global\let\hyper@last\relax 
\gdef\HyperFirstAtBeginDocument#1{#1}
\providecommand\HyField@AuxAddToFields[1]{}
\providecommand\HyField@AuxAddToCoFields[2]{}
\bibstyle{biblatex}
\bibdata{main-blx}
\citation{biblatex-control}
\@writefile{toc}{\boolfalse {citerequest}\boolfalse {citetracker}\boolfalse {pagetracker}\boolfalse {backtracker}\relax }
\@writefile{lof}{\boolfalse {citerequest}\boolfalse {citetracker}\boolfalse {pagetracker}\boolfalse {backtracker}\relax }
\@writefile{lot}{\boolfalse {citerequest}\boolfalse {citetracker}\boolfalse {pagetracker}\boolfalse {backtracker}\relax }
\select@language{english}
\@writefile{toc}{\defcounter {refsection}{0}\relax }\@writefile{toc}{\select@language{english}}
\@writefile{lof}{\defcounter {refsection}{0}\relax }\@writefile{lof}{\select@language{english}}
\@writefile{lot}{\defcounter {refsection}{0}\relax }\@writefile{lot}{\select@language{english}}
\@writefile{loa}{\defcounter {refsection}{0}\relax }\@writefile{loa}{\select@language{english}}
\@writefile{toc}{\contentsline {chapter}{Declaration of Authorship}{iii}{section*.1}}
\@writefile{toc}{\contentsline {chapter}{Abstract}{vii}{section*.2}}
\@writefile{toc}{\contentsline {chapter}{Acknowledgements}{ix}{section*.3}}
\gdef \LT@i {\LT@entry 
    {1}{52.74467pt}\LT@entry 
    {1}{239.43962pt}}
\gdef \LT@ii {\LT@entry 
    {1}{20.5509pt}\LT@entry 
    {1}{100.58446pt}\LT@entry 
    {1}{56.56885pt}}
\@input{Chapters/c1.aux}
\@input{Chapters/c2.aux}
\@input{Chapters/c3.aux}
\citation{einstein}
\@input{Chapters/c4.aux}
\@input{Chapters/c5.aux}
\@input{Chapters/c6.aux}
\@input{Chapters/c7.aux}
\@input{Chapters/c8.aux}
\citation{ggg}
\@input{Chapters/c9.aux}
\@input{Appendices/AppendixA.aux}
\bibcite{HB98}{1}
\bibcite{CA}{2}
\bibcite{MSW00}{3}
\bibcite{Rei91}{4}
\bibcite{retargeting}{5}
