\relax 
\providecommand\hyper@newdestlabel[2]{}
\@writefile{toc}{\contentsline {chapter}{\numberline {1}Introduction}{1}{chapter.13}}
\@writefile{lof}{\addvspace {10\p@ }}
\@writefile{lot}{\addvspace {10\p@ }}
\newlabel{Chapter1}{{1}{1}{Introduction}{chapter.13}{}}
\@writefile{toc}{\contentsline {section}{\numberline {1.1}Metrics}{1}{section.14}}
\@writefile{toc}{\contentsline {subsection}{\numberline {1.1.1}Definition}{1}{subsection.15}}
\@writefile{toc}{\contentsline {subsection}{\numberline {1.1.2}Metrics Properties}{2}{subsection.17}}
\@writefile{toc}{\contentsline {subsubsection}{\numberline {1.1.2.1}Non-negativity}{2}{subsubsection.18}}
\newlabel{sec:1}{{1.1.2.1}{2}{Non-negativity}{subsubsection.18}{}}
\@writefile{toc}{\contentsline {subsubsection}{\numberline {1.1.2.2}Identity of Indiscernibles}{2}{subsubsection.20}}
\newlabel{sec:2}{{1.1.2.2}{2}{Identity of Indiscernibles}{subsubsection.20}{}}
\@writefile{toc}{\contentsline {subsubsection}{\numberline {1.1.2.3}Symmetry}{2}{subsubsection.22}}
\newlabel{sec:3}{{1.1.2.3}{2}{Symmetry}{subsubsection.22}{}}
\@writefile{toc}{\contentsline {subsubsection}{\numberline {1.1.2.4}Sub-additivity (Triangle Inequality)}{2}{subsubsection.24}}
\newlabel{sec:4}{{1.1.2.4}{2}{Sub-additivity (Triangle Inequality)}{subsubsection.24}{}}
\@writefile{toc}{\contentsline {subsection}{\numberline {1.1.3}Semi-metrics}{2}{subsection.26}}
\@writefile{toc}{\contentsline {subsection}{\numberline {1.1.4}Pseudo-metrics}{2}{subsection.27}}
\@writefile{toc}{\contentsline {section}{\numberline {1.2}Metric Learning}{3}{section.29}}
\@writefile{toc}{\contentsline {section}{\numberline {1.3}Bin-to-Bin \& Cross-Bin Metrics}{3}{section.30}}
\@writefile{toc}{\contentsline {section}{\numberline {1.4}Mahalanobis Distance}{3}{section.31}}
\@writefile{toc}{\contentsline {section}{\numberline {1.5}Related Work}{3}{section.34}}
\@writefile{toc}{\contentsline {section}{\numberline {1.6}Contribution}{4}{section.35}}
\@setckpt{Chapters/c1}{
\setcounter{page}{5}
\setcounter{equation}{8}
\setcounter{enumi}{0}
\setcounter{enumii}{0}
\setcounter{enumiii}{0}
\setcounter{enumiv}{0}
\setcounter{footnote}{0}
\setcounter{mpfootnote}{0}
\setcounter{part}{0}
\setcounter{chapter}{1}
\setcounter{section}{6}
\setcounter{subsection}{0}
\setcounter{subsubsection}{0}
\setcounter{paragraph}{0}
\setcounter{subparagraph}{0}
\setcounter{figure}{0}
\setcounter{table}{0}
\setcounter{LT@tables}{2}
\setcounter{LT@chunks}{1}
\setcounter{ContinuedFloat}{0}
\setcounter{parentequation}{0}
\setcounter{ALC@unique}{0}
\setcounter{ALC@line}{0}
\setcounter{ALC@rem}{0}
\setcounter{ALC@depth}{0}
\setcounter{float@type}{8}
\setcounter{algorithm}{0}
\setcounter{Item}{0}
\setcounter{Hfootnote}{0}
\setcounter{bookmark@seq@number}{18}
\setcounter{tabx@nest}{0}
\setcounter{listtotal}{0}
\setcounter{listcount}{0}
\setcounter{liststart}{0}
\setcounter{liststop}{0}
\setcounter{citecount}{0}
\setcounter{citetotal}{0}
\setcounter{multicitecount}{0}
\setcounter{multicitetotal}{0}
\setcounter{instcount}{0}
\setcounter{maxnames}{3}
\setcounter{minnames}{1}
\setcounter{maxitems}{3}
\setcounter{minitems}{1}
\setcounter{citecounter}{0}
\setcounter{savedcitecounter}{0}
\setcounter{uniquelist}{0}
\setcounter{uniquename}{0}
\setcounter{refsection}{0}
\setcounter{refsegment}{0}
\setcounter{maxextrayear}{0}
\setcounter{maxextraalpha}{0}
\setcounter{abbrvpenalty}{50}
\setcounter{highnamepenalty}{50}
\setcounter{lownamepenalty}{25}
\setcounter{maxparens}{3}
\setcounter{parenlevel}{0}
\setcounter{mincomprange}{10}
\setcounter{maxcomprange}{100000}
\setcounter{mincompwidth}{1}
\setcounter{labelname}{0}
\setcounter{savedlabelname}{0}
\setcounter{author}{0}
\setcounter{savedauthor}{0}
\setcounter{shortauthor}{0}
\setcounter{savedshortauthor}{0}
\setcounter{editor}{0}
\setcounter{savededitor}{0}
\setcounter{editora}{0}
\setcounter{savededitora}{0}
\setcounter{editorb}{0}
\setcounter{savededitorb}{0}
\setcounter{editorc}{0}
\setcounter{savededitorc}{0}
\setcounter{shorteditor}{0}
\setcounter{savedshorteditor}{0}
\setcounter{bookauthor}{0}
\setcounter{savedbookauthor}{0}
\setcounter{translator}{0}
\setcounter{savedtranslator}{0}
\setcounter{annotator}{0}
\setcounter{savedannotator}{0}
\setcounter{commentator}{0}
\setcounter{savedcommentator}{0}
\setcounter{introduction}{0}
\setcounter{savedintroduction}{0}
\setcounter{foreword}{0}
\setcounter{savedforeword}{0}
\setcounter{afterword}{0}
\setcounter{savedafterword}{0}
\setcounter{holder}{0}
\setcounter{savedholder}{0}
\setcounter{namea}{0}
\setcounter{savednamea}{0}
\setcounter{nameb}{0}
\setcounter{savednameb}{0}
\setcounter{namec}{0}
\setcounter{savednamec}{0}
\setcounter{institution}{0}
\setcounter{savedinstitution}{0}
\setcounter{language}{0}
\setcounter{savedlanguage}{0}
\setcounter{location}{0}
\setcounter{savedlocation}{0}
\setcounter{organization}{0}
\setcounter{savedorganization}{0}
\setcounter{origlocation}{0}
\setcounter{savedoriglocation}{0}
\setcounter{origpublisher}{0}
\setcounter{savedorigpublisher}{0}
\setcounter{pageref}{0}
\setcounter{savedpageref}{0}
\setcounter{publisher}{0}
\setcounter{savedpublisher}{0}
\setcounter{lista}{0}
\setcounter{savedlista}{0}
\setcounter{listb}{0}
\setcounter{savedlistb}{0}
\setcounter{listc}{0}
\setcounter{savedlistc}{0}
\setcounter{listd}{0}
\setcounter{savedlistd}{0}
\setcounter{liste}{0}
\setcounter{savedliste}{0}
\setcounter{listf}{0}
\setcounter{savedlistf}{0}
\setcounter{textcitecount}{0}
\setcounter{textcitetotal}{0}
\setcounter{textcitemaxnames}{0}
\setcounter{biburlnumpenalty}{0}
\setcounter{biburlucpenalty}{0}
\setcounter{biburllcpenalty}{0}
\setcounter{smartand}{1}
\setcounter{bbx:relatedcount}{0}
\setcounter{bbx:relatedtotal}{0}
\setcounter{section@level}{1}
}
